[
"978-0-387-36274-8",
"978-0-387-36601-2",
"978-0-387-78341-3",
"978-1-4419-9504-9",
"978-3-642-20951-2",
"978-3-319-46394-0",
"978-94-007-5757-8",
"978-3-319-09171-6",
"978-94-007-1171-6",
"978-981-10-1802-2",
"978-3-642-28980-4",
"978-3-319-49810-2",
"978-3-319-95381-6",
"978-981-10-8321-1",
"978-981-13-0785-0"

]
